{
  "version": "0.3.14-fixed",
  "steps": [
    {
      "tag": "CreateSource",
      "source": "sqlite"
    },
    {
      "tag": "CreateArgument",
      "location": {
        "tag": "Source",
        "source": "sqlite"
      },
      "argument": "provider",
      "value": "\"sqlite\""
    },
    {
      "tag": "CreateArgument",
      "location": {
        "tag": "Source",
        "source": "sqlite"
      },
      "argument": "url",
      "value": "\"***\""
    },
    {
      "tag": "CreateModel",
      "model": "Message"
    },
    {
      "tag": "CreateField",
      "model": "Message",
      "field": "id",
      "type": "Int",
      "arity": "Required"
    },
    {
      "tag": "CreateDirective",
      "location": {
        "path": {
          "tag": "Field",
          "model": "Message",
          "field": "id"
        },
        "directive": "id"
      }
    },
    {
      "tag": "CreateDirective",
      "location": {
        "path": {
          "tag": "Field",
          "model": "Message",
          "field": "id"
        },
        "directive": "default"
      }
    },
    {
      "tag": "CreateArgument",
      "location": {
        "tag": "Directive",
        "path": {
          "tag": "Field",
          "model": "Message",
          "field": "id"
        },
        "directive": "default"
      },
      "argument": "",
      "value": "autoincrement()"
    },
    {
      "tag": "CreateField",
      "model": "Message",
      "field": "author",
      "type": "String",
      "arity": "Required"
    }
  ]
}